StartFontMetrics 2.0
Comment Generated by FontForge 20190801
Comment Creation Date: Thu May  5 13:57:45 2022
FontName RegStandardBoldItalic
FullName Untitled1
FamilyName RegStandardBoldItalic
Weight Regular
Notice (Copyright (c) 2020, cedr,,,)
ItalicAngle 0
IsFixedPitch false
UnderlinePosition -100
UnderlineThickness 50
Version 001.000
EncodingScheme FontSpecific
FontBBox 26 -134 826 533
CapHeight 533
XHeight 400
Ascender 533
Descender -134
StartCharMetrics 135
C 32 ; WX 315 ; N space ; B 0 0 0 0 ;
C 33 ; WX 315 ; N exclam ; B 26 0 293 533 ;
C 37 ; WX 578 ; N percent ; B 26 0 560 533 ;
C 38 ; WX 526 ; N ampersand ; B 26 0 493 533 ;
C 39 ; WX 184 ; N quotesingle ; B 26 266 160 533 ;
C 40 ; WX 315 ; N parenleft ; B 26 -134 293 533 ;
C 41 ; WX 394 ; N parenright ; B 26 -134 360 533 ;
C 42 ; WX 447 ; N asterisk ; B 26 133 426 533 ;
C 43 ; WX 447 ; N plus ; B 26 66 426 466 ;
C 44 ; WX 263 ; N comma ; B 26 -134 226 133 ;
C 45 ; WX 315 ; N hyphen ; B 26 133 293 333 ;
C 46 ; WX 263 ; N period ; B 26 0 226 133 ;
C 47 ; WX 657 ; N slash ; B 26 -134 626 533 ;
C 48 ; WX 578 ; N zero ; B 26 0 560 533 ;
C 49 ; WX 315 ; N one ; B 26 0 293 533 ;
C 50 ; WX 526 ; N two ; B 26 0 493 533 ;
C 51 ; WX 526 ; N three ; B 26 0 493 533 ;
C 52 ; WX 526 ; N four ; B 26 0 493 533 ;
C 53 ; WX 526 ; N five ; B 26 0 493 533 ;
C 54 ; WX 447 ; N six ; B 26 0 426 533 ;
C 55 ; WX 447 ; N seven ; B 26 0 426 533 ;
C 56 ; WX 578 ; N eight ; B 26 0 560 533 ;
C 57 ; WX 447 ; N nine ; B 26 0 426 533 ;
C 58 ; WX 315 ; N colon ; B 26 0 293 400 ;
C 59 ; WX 315 ; N semicolon ; B 26 -134 293 400 ;
C 60 ; WX 447 ; N less ; B 26 66 426 400 ;
C 61 ; WX 447 ; N equal ; B 26 133 426 333 ;
C 62 ; WX 447 ; N greater ; B 26 66 426 400 ;
C 63 ; WX 447 ; N question ; B 26 0 426 533 ;
C 64 ; WX 578 ; N at ; B 26 0 560 533 ;
C 65 ; WX 526 ; N A ; B 26 0 493 533 ;
C 66 ; WX 578 ; N B ; B 26 0 560 533 ;
C 67 ; WX 578 ; N C ; B 26 0 560 533 ;
C 68 ; WX 578 ; N D ; B 26 0 560 533 ;
C 69 ; WX 578 ; N E ; B 26 0 560 533 ;
C 70 ; WX 578 ; N F ; B 26 0 560 533 ;
C 71 ; WX 578 ; N G ; B 26 0 560 533 ;
C 72 ; WX 578 ; N H ; B 26 0 560 533 ;
C 73 ; WX 315 ; N I ; B 26 0 293 533 ;
C 74 ; WX 447 ; N J ; B 26 0 426 533 ;
C 75 ; WX 578 ; N K ; B 26 0 560 533 ;
C 76 ; WX 447 ; N L ; B 26 0 426 533 ;
C 77 ; WX 710 ; N M ; B 26 0 693 533 ;
C 78 ; WX 578 ; N N ; B 26 0 560 533 ;
C 79 ; WX 578 ; N O ; B 26 0 560 533 ;
C 80 ; WX 578 ; N P ; B 26 0 560 533 ;
C 81 ; WX 578 ; N Q ; B 26 0 560 533 ;
C 82 ; WX 578 ; N R ; B 26 0 560 533 ;
C 83 ; WX 578 ; N S ; B 26 0 560 533 ;
C 84 ; WX 578 ; N T ; B 26 0 560 533 ;
C 85 ; WX 578 ; N U ; B 26 0 560 533 ;
C 86 ; WX 578 ; N V ; B 26 0 560 533 ;
C 87 ; WX 842 ; N W ; B 26 0 826 533 ;
C 88 ; WX 657 ; N X ; B 26 0 626 533 ;
C 89 ; WX 578 ; N Y ; B 26 0 560 533 ;
C 90 ; WX 578 ; N Z ; B 26 0 560 533 ;
C 91 ; WX 394 ; N bracketleft ; B 26 -134 360 533 ;
C 92 ; WX 447 ; N backslash ; B 26 -134 426 533 ;
C 93 ; WX 394 ; N bracketright ; B 26 -134 360 533 ;
C 95 ; WX 394 ; N underscore ; B 26 -134 360 -67 ;
C 96 ; WX 263 ; N grave ; B 26 400 226 533 ;
C 97 ; WX 447 ; N a ; B 26 0 426 400 ;
C 98 ; WX 447 ; N b ; B 26 0 426 533 ;
C 99 ; WX 447 ; N c ; B 26 0 426 400 ;
C 100 ; WX 526 ; N d ; B 26 0 493 533 ;
C 101 ; WX 447 ; N e ; B 26 0 426 400 ;
C 102 ; WX 315 ; N f ; B 26 0 293 533 ;
C 103 ; WX 526 ; N g ; B 26 -134 493 400 ;
C 104 ; WX 447 ; N h ; B 26 0 426 533 ;
C 105 ; WX 315 ; N i ; B 26 0 293 533 ;
C 106 ; WX 394 ; N j ; B 26 -134 360 533 ;
C 107 ; WX 447 ; N k ; B 26 0 426 533 ;
C 108 ; WX 315 ; N l ; B 26 0 293 533 ;
C 109 ; WX 710 ; N m ; B 26 0 693 400 ;
C 110 ; WX 447 ; N n ; B 26 0 426 400 ;
C 111 ; WX 447 ; N o ; B 26 0 426 400 ;
C 112 ; WX 526 ; N p ; B 26 -134 493 400 ;
C 113 ; WX 447 ; N q ; B 26 -134 426 400 ;
C 114 ; WX 394 ; N r ; B 26 0 360 400 ;
C 115 ; WX 447 ; N s ; B 26 0 426 400 ;
C 116 ; WX 315 ; N t ; B 26 0 293 533 ;
C 117 ; WX 447 ; N u ; B 26 0 426 400 ;
C 118 ; WX 447 ; N v ; B 26 0 426 400 ;
C 119 ; WX 578 ; N w ; B 26 0 560 400 ;
C 120 ; WX 526 ; N x ; B 26 0 493 400 ;
C 121 ; WX 526 ; N y ; B 26 -134 493 400 ;
C 122 ; WX 447 ; N z ; B 26 0 426 400 ;
C 123 ; WX 315 ; N braceleft ; B 26 -134 293 533 ;
C 125 ; WX 394 ; N braceright ; B 26 -134 360 533 ;
C 168 ; WX 315 ; N dieresis ; B 26 400 293 533 ;
C 180 ; WX 263 ; N acute ; B 26 400 226 533 ;
C 184 ; WX 263 ; N cedilla ; B 26 -134 226 66 ;
C 192 ; WX 526 ; N Agrave ; B 26 -67 493 533 ;
C 193 ; WX 526 ; N Aacute ; B 26 -67 493 533 ;
C 194 ; WX 526 ; N Acircumflex ; B 26 -67 493 533 ;
C 196 ; WX 526 ; N Adieresis ; B 26 -67 493 533 ;
C 198 ; WX 789 ; N AE ; B 26 0 760 533 ;
C 200 ; WX 578 ; N Egrave ; B 26 -67 560 533 ;
C 201 ; WX 578 ; N Eacute ; B 26 -67 560 533 ;
C 202 ; WX 578 ; N Ecircumflex ; B 26 -67 560 533 ;
C 203 ; WX 578 ; N Edieresis ; B 26 -67 560 533 ;
C 204 ; WX 315 ; N Igrave ; B 26 -67 293 533 ;
C 205 ; WX 263 ; N Iacute ; B 26 -67 226 533 ;
C 206 ; WX 315 ; N Icircumflex ; B 26 -67 293 533 ;
C 207 ; WX 315 ; N Idieresis ; B 26 -67 293 533 ;
C 210 ; WX 578 ; N Ograve ; B 26 -67 560 533 ;
C 211 ; WX 578 ; N Oacute ; B 26 -67 560 533 ;
C 212 ; WX 578 ; N Ocircumflex ; B 26 -67 560 533 ;
C 214 ; WX 578 ; N Odieresis ; B 26 -67 560 533 ;
C 217 ; WX 578 ; N Ugrave ; B 26 -67 560 533 ;
C 218 ; WX 578 ; N Uacute ; B 26 -67 560 533 ;
C 219 ; WX 578 ; N Ucircumflex ; B 26 -67 560 533 ;
C 220 ; WX 578 ; N Udieresis ; B 26 -67 560 533 ;
C 224 ; WX 447 ; N agrave ; B 26 0 426 533 ;
C 225 ; WX 447 ; N aacute ; B 26 0 426 533 ;
C 226 ; WX 447 ; N acircumflex ; B 26 0 426 533 ;
C 228 ; WX 447 ; N adieresis ; B 26 0 426 533 ;
C 230 ; WX 710 ; N ae ; B 26 0 693 400 ;
C 232 ; WX 447 ; N egrave ; B 26 0 426 533 ;
C 233 ; WX 447 ; N eacute ; B 26 0 426 533 ;
C 234 ; WX 447 ; N ecircumflex ; B 26 0 426 533 ;
C 235 ; WX 447 ; N edieresis ; B 26 0 426 533 ;
C 236 ; WX 263 ; N igrave ; B 26 0 226 533 ;
C 237 ; WX 315 ; N iacute ; B 26 0 293 533 ;
C 238 ; WX 315 ; N icircumflex ; B 26 0 293 533 ;
C 239 ; WX 315 ; N idieresis ; B 26 0 293 533 ;
C 242 ; WX 447 ; N ograve ; B 26 0 426 533 ;
C 243 ; WX 447 ; N oacute ; B 26 0 426 533 ;
C 244 ; WX 447 ; N ocircumflex ; B 26 0 426 533 ;
C 246 ; WX 447 ; N odieresis ; B 26 0 426 533 ;
C 249 ; WX 447 ; N ugrave ; B 26 0 426 533 ;
C 250 ; WX 447 ; N uacute ; B 26 0 426 533 ;
C 251 ; WX 447 ; N ucircumflex ; B 26 0 426 533 ;
C 252 ; WX 447 ; N udieresis ; B 26 0 426 533 ;
C -1 ; WX 105 ; N glyph134 ; B 0 0 0 0 ;
EndCharMetrics
EndFontMetrics
